{
    "success": true,
    "appointments": [
        {
            "_id": "6a22b53bfe9ef087599eb139",
            "visitId": "b139",
            "patientId": "69a289a3a8a5d533d2b54c55",
            "patientName": "Muskan Gupta",
            "patientNumber": "919798272241",
            "patientEmail": "muskan@gmail.com",
            "emrNumber": "EMR-28909",
            "invoiceNumber": "INV-1772259747087-458",
            "gender": "Male",
            "doctorId": "69269f7496275482d82e5e7b",
            "doctorName": "Rahul Kumar",
            "doctorEmail": "rahul@gmail.com",
            "roomId": "",
            "roomName": "-",
            "serviceId": "699c44f5e47e7a6cbcf24654",
            "serviceName": "Root canal",
            "serviceIds": [],
            "serviceNames": [
                "Root canal"
            ],
            "status": "booked",
            "followType": "first time",
            "referral": "direct",
            "emergency": "no",
            "notes": "",
            "registeredDate": "05/07/2026",
            "registeredTime": "11:00 - 11:20",
            "invoicedDate": "28/02/2026",
            "invoicedTime": "11:52 AM",
            "startDate": "2026-07-05T00:00:00.000Z",
            "fromTime": "11:00",
            "toTime": "11:20",
            "createdAt": "2026-06-05T11:38:35.139Z",
            "updatedAt": "2026-06-05T11:38:35.139Z"
        },
        {
            "_id": "6a22b6befe9ef087599eb5f5",
            "visitId": "b5f5",
            "patientId": "6a21222a13e40464e9b9add0",
            "patientName": "Aditya Soran",
            "patientNumber": "916396369163",
            "patientEmail": "",
            "emrNumber": "EMR-29386",
            "invoiceNumber": "INV-1780556330379-402",
            "gender": "",
            "doctorId": "69269f7496275482d82e5e7b",
            "doctorName": "Rahul Kumar",
            "doctorEmail": "rahul@gmail.com",
            "roomId": "",
            "roomName": "-",
            "serviceId": "699c44f5e47e7a6cbcf24654",
            "serviceName": "Root canal",
            "serviceIds": [],
            "serviceNames": [
                "Root canal"
            ],
            "status": "booked",
            "followType": "first time",
            "referral": "direct",
            "emergency": "no",
            "notes": "",
            "registeredDate": "05/07/2026",
            "registeredTime": "10:00 - 10:20",
            "invoicedDate": "04/06/2026",
            "invoicedTime": "12:28 PM",
            "startDate": "2026-07-05T00:00:00.000Z",
            "fromTime": "10:00",
            "toTime": "10:20",
            "createdAt": "2026-06-05T11:45:02.568Z",
            "updatedAt": "2026-06-05T11:45:02.568Z"
        },
        {
            "_id": "6a2197eb153027071f309b7a",
            "visitId": "9b7a",
            "patientId": "69e780acc69a76110346bbee",
            "patientName": "M' Red",
            "patientNumber": "971561755665",
            "patientEmail": "",
            "emrNumber": "EMR-29176",
            "invoiceNumber": "INV-1776779436822-865",
            "gender": "",
            "doctorId": "6a1b0bcc8666566e89d7c372",
            "doctorName": "Noddaine",
            "doctorEmail": "Noddaine@gmail.com",
            "roomId": "6967375d233eabf3baef651f",
            "roomName": "Ayurvedic",
            "serviceId": "",
            "serviceName": "",
            "serviceIds": [],
            "serviceNames": [],
            "status": "booked",
            "followType": "follow up",
            "referral": "direct",
            "emergency": "no",
            "notes": "",
            "registeredDate": "20/06/2026",
            "registeredTime": "09:00 - 09:30",
            "invoicedDate": "21/04/2026",
            "invoicedTime": "07:20 PM",
            "startDate": "2026-06-20T00:00:00.000Z",
            "fromTime": "09:00",
            "toTime": "09:30",
            "createdAt": "2026-06-04T15:21:15.042Z",
            "updatedAt": "2026-06-04T15:21:15.042Z"
        },
        {
            "_id": "6a21949f153027071f2ca18e",
            "visitId": "a18e",
            "patientId": "69e780acc69a76110346bbee",
            "patientName": "M' Red",
            "patientNumber": "971561755665",
            "patientEmail": "",
            "emrNumber": "EMR-29176",
            "invoiceNumber": "INV-1776779436822-865",
            "gender": "",
            "doctorId": "6a1b0bcc8666566e89d7c372",
            "doctorName": "Noddaine",
            "doctorEmail": "Noddaine@gmail.com",
            "roomId": "6999c3c2495feb9e1daa4d88",
            "roomName": "Laser room",
            "serviceId": "",
            "serviceName": "",
            "serviceIds": [],
            "serviceNames": [],
            "status": "booked",
            "followType": "follow up",
            "referral": "direct",
            "emergency": "no",
            "notes": "",
            "registeredDate": "10/06/2026",
            "registeredTime": "11:00 - 11:30",
            "invoicedDate": "21/04/2026",
            "invoicedTime": "07:20 PM",
            "startDate": "2026-06-10T00:00:00.000Z",
            "fromTime": "11:00",
            "toTime": "11:30",
            "createdAt": "2026-06-04T15:07:11.456Z",
            "updatedAt": "2026-06-04T15:07:11.456Z"
        },
        {
            "_id": "6a22b1c4fe9ef087599eafda",
            "visitId": "afda",
            "patientId": "69dcbcd93e6eabec68844c3f",
            "patientName": "Bajuddin Khan1",
            "patientNumber": "917818035705",
            "patientEmail": "",
            "emrNumber": "EMR-29139",
            "invoiceNumber": "INV-1776073944657-107",
            "gender": "Other",
            "doctorId": "6a031ff3772d919dbd270009",
            "doctorName": "A2 Doc",
            "doctorEmail": "A2Doc@gmail.com",
            "roomId": "6967375d233eabf3baef651f",
            "roomName": "Ayurvedic",
            "serviceId": "6a11c5123a0d55d72e65eadb",
            "serviceName": "Root canal Hirb",
            "serviceIds": [
                "6a11c5123a0d55d72e65eadb"
            ],
            "serviceNames": [
                "Root canal Hirb"
            ],
            "status": "booked",
            "followType": "first time",
            "referral": "No",
            "emergency": "no",
            "notes": "",
            "registeredDate": "06/06/2026",
            "registeredTime": "10:30 - 10:45",
            "invoicedDate": "13/04/2026",
            "invoicedTime": "03:22 PM",
            "startDate": "2026-06-06T00:00:00.000Z",
            "fromTime": "10:30",
            "toTime": "10:45",
            "createdAt": "2026-06-05T11:23:49.015Z",
            "updatedAt": "2026-06-05T11:23:49.015Z"
        },
        {
            "_id": "6a1ec57cc815fd198325393d",
            "visitId": "393d",
            "patientId": "69dcbcd93e6eabec68844c3f",
            "patientName": "Bajuddin Khan1",
            "patientNumber": "917818035705",
            "patientEmail": "",
            "emrNumber": "EMR-29139",
            "invoiceNumber": "INV-1776073944657-107",
            "gender": "Other",
            "doctorId": "69269f7496275482d82e5e7b",
            "doctorName": "Rahul Kumar",
            "doctorEmail": "rahul@gmail.com",
            "roomId": "6984527df17d83c036995dcc",
            "roomName": "Room100",
            "serviceId": "699c44f5e47e7a6cbcf24654",
            "serviceName": "Root canal",
            "serviceIds": [],
            "serviceNames": [
                "Root canal"
            ],
            "status": "booked",
            "followType": "first time",
            "referral": "direct",
            "emergency": "no",
            "notes": "",
            "registeredDate": "06/06/2026",
            "registeredTime": "10:00 - 10:20",
            "invoicedDate": "13/04/2026",
            "invoicedTime": "03:22 PM",
            "startDate": "2026-06-06T00:00:00.000Z",
            "fromTime": "10:00",
            "toTime": "10:20",
            "createdAt": "2026-06-02T11:58:52.364Z",
            "updatedAt": "2026-06-02T11:58:52.364Z"
        },
        {
            "_id": "6a2024ca7dd69af43f8cdb7b",
            "visitId": "db7b",
            "patientId": "69dc87e9de020702543b48ed",
            "patientName": "SAKSHI",
            "patientNumber": "9846520845",
            "patientEmail": "",
            "emrNumber": "EMR-29137",
            "invoiceNumber": "INV-20260413-163",
            "gender": "Female",
            "doctorId": "691ea8fc93a5402fa4dd4d74",
            "doctorName": "Disha",
            "doctorEmail": "disha@gmail.com",
            "roomId": "6999c3c2495feb9e1daa4d88",
            "roomName": "Laser room",
            "serviceId": "",
            "serviceName": "",
            "serviceIds": [],
            "serviceNames": [],
            "status": "Arrived",
            "followType": "follow up",
            "referral": "Neha",
            "emergency": "no",
            "notes": "",
            "registeredDate": "05/06/2026",
            "registeredTime": "21:27 - 21:32",
            "invoicedDate": "13/04/2026",
            "invoicedTime": "11:36 AM",
            "startDate": "2026-06-05T00:00:00.000Z",
            "fromTime": "21:27",
            "toTime": "21:32",
            "createdAt": "2026-06-03T12:57:46.057Z",
            "updatedAt": "2026-06-04T04:42:28.198Z"
        },
        {
            "_id": "6a2011df11f0ec9e113bed80",
            "visitId": "ed80",
            "patientId": "69a289a3a8a5d533d2b54c55",
            "patientName": "Muskan Gupta",
            "patientNumber": "919798272241",
            "patientEmail": "muskan@gmail.com",
            "emrNumber": "EMR-28909",
            "invoiceNumber": "INV-1772259747087-458",
            "gender": "Male",
            "doctorId": "69269f7496275482d82e5e7b",
            "doctorName": "Rahul Kumar",
            "doctorEmail": "rahul@gmail.com",
            "roomId": "6984527df17d83c036995dcc",
            "roomName": "Room100",
            "serviceId": "699c44f5e47e7a6cbcf24654",
            "serviceName": "Root canal",
            "serviceIds": [],
            "serviceNames": [
                "Root canal"
            ],
            "status": "booked",
            "followType": "first time",
            "referral": "direct",
            "emergency": "no",
            "notes": "",
            "registeredDate": "05/06/2026",
            "registeredTime": "15:00 - 15:20",
            "invoicedDate": "28/02/2026",
            "invoicedTime": "11:52 AM",
            "startDate": "2026-06-05T00:00:00.000Z",
            "fromTime": "15:00",
            "toTime": "15:20",
            "createdAt": "2026-06-03T11:37:03.731Z",
            "updatedAt": "2026-06-03T11:37:48.198Z"
        },
        {
            "_id": "6a1ecea1c815fd1983253dac",
            "visitId": "3dac",
            "patientId": "69a289a3a8a5d533d2b54c55",
            "patientName": "Muskan Gupta",
            "patientNumber": "919798272241",
            "patientEmail": "muskan@gmail.com",
            "emrNumber": "EMR-28909",
            "invoiceNumber": "INV-1772259747087-458",
            "gender": "Male",
            "doctorId": "69269f7496275482d82e5e7b",
            "doctorName": "Rahul Kumar",
            "doctorEmail": "rahul@gmail.com",
            "roomId": "6984527df17d83c036995dcc",
            "roomName": "Room100",
            "serviceId": "699c44f5e47e7a6cbcf24654",
            "serviceName": "Root canal",
            "serviceIds": [],
            "serviceNames": [
                "Root canal"
            ],
            "status": "booked",
            "followType": "first time",
            "referral": "direct",
            "emergency": "no",
            "notes": "",
            "registeredDate": "05/06/2026",
            "registeredTime": "15:00 - 15:20",
            "invoicedDate": "28/02/2026",
            "invoicedTime": "11:52 AM",
            "startDate": "2026-06-05T00:00:00.000Z",
            "fromTime": "15:00",
            "toTime": "15:20",
            "createdAt": "2026-06-02T12:37:53.581Z",
            "updatedAt": "2026-06-02T12:37:53.581Z"
        },
        {
            "_id": "6a2258de18b53b7e4a8519ab",
            "visitId": "19ab",
            "patientId": "6a21222a13e40464e9b9add0",
            "patientName": "Aditya Soran",
            "patientNumber": "916396369163",
            "patientEmail": "",
            "emrNumber": "EMR-29386",
            "invoiceNumber": "INV-1780556330379-402",
            "gender": "",
            "doctorId": "691ea8fc93a5402fa4dd4d74",
            "doctorName": "Disha",
            "doctorEmail": "disha@gmail.com",
            "roomId": "695f80a7e5c8ca12fe70526e",
            "roomName": "Laser Room",
            "serviceId": "",
            "serviceName": "",
            "serviceIds": [],
            "serviceNames": [],
            "status": "Arrived",
            "followType": "first time",
            "referral": "No",
            "emergency": "no",
            "notes": "",
            "registeredDate": "05/06/2026",
            "registeredTime": "14:15 - 14:30",
            "invoicedDate": "04/06/2026",
            "invoicedTime": "12:28 PM",
            "startDate": "2026-06-05T00:00:00.000Z",
            "fromTime": "14:15",
            "toTime": "14:30",
            "createdAt": "2026-06-05T05:04:30.900Z",
            "updatedAt": "2026-06-05T05:04:30.900Z"
        },
        {
            "_id": "6a2110ac13e40464e9b964f7",
            "visitId": "64f7",
            "patientId": "69a289a3a8a5d533d2b54c55",
            "patientName": "Muskan Gupta",
            "patientNumber": "919798272241",
            "patientEmail": "muskan@gmail.com",
            "emrNumber": "EMR-28909",
            "invoiceNumber": "INV-1772259747087-458",
            "gender": "Male",
            "doctorId": "69269f7496275482d82e5e7b",
            "doctorName": "Rahul Kumar",
            "doctorEmail": "rahul@gmail.com",
            "roomId": "6999c3c2495feb9e1daa4d88",
            "roomName": "Laser room",
            "serviceId": "699c44f5e47e7a6cbcf24654",
            "serviceName": "Root canal",
            "serviceIds": [],
            "serviceNames": [
                "Root canal"
            ],
            "status": "booked",
            "followType": "first time",
            "referral": "direct",
            "emergency": "no",
            "notes": "",
            "registeredDate": "05/06/2026",
            "registeredTime": "11:00 - 11:20",
            "invoicedDate": "28/02/2026",
            "invoicedTime": "11:52 AM",
            "startDate": "2026-06-05T00:00:00.000Z",
            "fromTime": "11:00",
            "toTime": "11:20",
            "createdAt": "2026-06-04T05:44:12.517Z",
            "updatedAt": "2026-06-04T05:44:12.517Z"
        },
        {
            "_id": "6a1fc13e2e0586686c3050a2",
            "visitId": "50a2",
            "patientId": "69a289a3a8a5d533d2b54c55",
            "patientName": "Muskan Gupta",
            "patientNumber": "919798272241",
            "patientEmail": "muskan@gmail.com",
            "emrNumber": "EMR-28909",
            "invoiceNumber": "INV-1772259747087-458",
            "gender": "Male",
            "doctorId": "69269f7496275482d82e5e7b",
            "doctorName": "Rahul Kumar",
            "doctorEmail": "rahul@gmail.com",
            "roomId": "6984527df17d83c036995dcc",
            "roomName": "Room100",
            "serviceId": "699c44f5e47e7a6cbcf24654",
            "serviceName": "Root canal",
            "serviceIds": [],
            "serviceNames": [
                "Root canal"
            ],
            "status": "booked",
            "followType": "first time",
            "referral": "direct",
            "emergency": "no",
            "notes": "",
            "registeredDate": "05/06/2026",
            "registeredTime": "11:00 - 11:20",
            "invoicedDate": "28/02/2026",
            "invoicedTime": "11:52 AM",
            "startDate": "2026-06-05T00:00:00.000Z",
            "fromTime": "11:00",
            "toTime": "11:20",
            "createdAt": "2026-06-03T05:53:02.015Z",
            "updatedAt": "2026-06-03T05:55:25.587Z"
        },
        {
            "_id": "6a22bc99fe9ef087599ecf2b",
            "visitId": "cf2b",
            "patientId": "6a21222a13e40464e9b9add0",
            "patientName": "Aditya Soran",
            "patientNumber": "916396369163",
            "patientEmail": "",
            "emrNumber": "EMR-29386",
            "invoiceNumber": "INV-1780556330379-402",
            "gender": "",
            "doctorId": "69269f7496275482d82e5e7b",
            "doctorName": "Rahul Kumar",
            "doctorEmail": "rahul@gmail.com",
            "roomId": "",
            "roomName": "-",
            "serviceId": "6a11c5123a0d55d72e65eadb",
            "serviceName": "Root canal Hirb",
            "serviceIds": [],
            "serviceNames": [
                "Root canal Hirb"
            ],
            "status": "booked",
            "followType": "first time",
            "referral": "direct",
            "emergency": "no",
            "notes": "",
            "registeredDate": "05/06/2026",
            "registeredTime": "09:00 - 09:20",
            "invoicedDate": "04/06/2026",
            "invoicedTime": "12:28 PM",
            "startDate": "2026-06-05T00:00:00.000Z",
            "fromTime": "09:00",
            "toTime": "09:20",
            "createdAt": "2026-06-05T12:10:01.755Z",
            "updatedAt": "2026-06-05T12:10:01.755Z"
        },
        {
            "_id": "6a1fbbb4a99b57cdae61dac8",
            "visitId": "dac8",
            "patientId": "6a1d3024c7cc426b5dadaebe",
            "patientName": "Bajuddin khn8",
            "patientNumber": "9178180357",
            "patientEmail": "bajuddinkhan0786@gmail.com",
            "emrNumber": "EMR-29372",
            "invoiceNumber": "INV-1780297763976-993",
            "gender": "",
            "doctorId": "691ea8fc93a5402fa4dd4d74",
            "doctorName": "Disha",
            "doctorEmail": "disha@gmail.com",
            "roomId": "",
            "roomName": "-",
            "serviceId": "",
            "serviceName": "",
            "serviceIds": [],
            "serviceNames": [],
            "status": "booked",
            "followType": "follow up",
            "referral": "direct",
            "emergency": "no",
            "notes": "",
            "registeredDate": "05/06/2026",
            "registeredTime": "00:59 - 00:15",
            "invoicedDate": "01/06/2026",
            "invoicedTime": "12:39 PM",
            "startDate": "2026-06-05T00:00:00.000Z",
            "fromTime": "00:59",
            "toTime": "00:15",
            "createdAt": "2026-06-03T05:29:24.218Z",
            "updatedAt": "2026-06-03T05:29:24.218Z"
        },
        {
            "_id": "6a218ee2153027071f25d0e9",
            "visitId": "d0e9",
            "patientId": "69e780acc69a76110346bbee",
            "patientName": "M' Red",
            "patientNumber": "971561755665",
            "patientEmail": "",
            "emrNumber": "EMR-29176",
            "invoiceNumber": "INV-1776779436822-865",
            "gender": "",
            "doctorId": "6a1b0bcc8666566e89d7c372",
            "doctorName": "Noddaine",
            "doctorEmail": "Noddaine@gmail.com",
            "roomId": "695f80a7e5c8ca12fe70526e",
            "roomName": "Laser Room",
            "serviceId": "69a1a6bb3bdd16949546749a",
            "serviceName": "Hydra Facial",
            "serviceIds": [
                "69a1a6bb3bdd16949546749a",
                "6a21938e153027071f2b37a8"
            ],
            "serviceNames": [
                "Hydra Facial",
                "Face PRP"
            ],
            "status": "Arrived",
            "followType": "first time",
            "referral": "No",
            "emergency": "no",
            "notes": "",
            "registeredDate": "04/06/2026",
            "registeredTime": "20:00 - 20:40",
            "invoicedDate": "21/04/2026",
            "invoicedTime": "07:20 PM",
            "startDate": "2026-06-04T00:00:00.000Z",
            "fromTime": "20:00",
            "toTime": "20:40",
            "createdAt": "2026-06-04T14:42:42.066Z",
            "updatedAt": "2026-06-04T15:21:31.159Z"
        },
        {
            "_id": "6a2148f84b60d8e80d545a52",
            "visitId": "5a52",
            "patientId": "6a21222a13e40464e9b9add0",
            "patientName": "Aditya Soran",
            "patientNumber": "916396369163",
            "patientEmail": "",
            "emrNumber": "EMR-29386",
            "invoiceNumber": "INV-1780556330379-402",
            "gender": "",
            "doctorId": "691ea8fc93a5402fa4dd4d74",
            "doctorName": "Disha",
            "doctorEmail": "disha@gmail.com",
            "roomId": "6999c3c2495feb9e1daa4d88",
            "roomName": "Laser room",
            "serviceId": "",
            "serviceName": "",
            "serviceIds": [],
            "serviceNames": [],
            "status": "Arrived",
            "followType": "first time",
            "referral": "No",
            "emergency": "no",
            "notes": "",
            "registeredDate": "04/06/2026",
            "registeredTime": "17:30 - 17:45",
            "invoicedDate": "04/06/2026",
            "invoicedTime": "12:28 PM",
            "startDate": "2026-06-04T00:00:00.000Z",
            "fromTime": "17:30",
            "toTime": "17:45",
            "createdAt": "2026-06-04T09:44:24.933Z",
            "updatedAt": "2026-06-04T09:44:24.933Z"
        },
        {
            "_id": "6a1fc6a21b83b2dcd85721f7",
            "visitId": "21f7",
            "patientId": "69a289a3a8a5d533d2b54c55",
            "patientName": "Muskan Gupta",
            "patientNumber": "919798272241",
            "patientEmail": "muskan@gmail.com",
            "emrNumber": "EMR-28909",
            "invoiceNumber": "INV-1772259747087-458",
            "gender": "Male",
            "doctorId": "69269f7496275482d82e5e7b",
            "doctorName": "Rahul Kumar",
            "doctorEmail": "rahul@gmail.com",
            "roomId": "6984527df17d83c036995dcc",
            "roomName": "Room100",
            "serviceId": "699c44f5e47e7a6cbcf24654",
            "serviceName": "Root canal",
            "serviceIds": [],
            "serviceNames": [
                "Root canal"
            ],
            "status": "booked",
            "followType": "first time",
            "referral": "direct",
            "emergency": "no",
            "notes": "",
            "registeredDate": "04/06/2026",
            "registeredTime": "14:00 - 14:20",
            "invoicedDate": "28/02/2026",
            "invoicedTime": "11:52 AM",
            "startDate": "2026-06-04T00:00:00.000Z",
            "fromTime": "14:00",
            "toTime": "14:20",
            "createdAt": "2026-06-03T06:16:02.167Z",
            "updatedAt": "2026-06-03T06:17:30.998Z"
        },
        {
            "_id": "6a2019304159af6198bd21cf",
            "visitId": "21cf",
            "patientId": "69a289a3a8a5d533d2b54c55",
            "patientName": "Muskan Gupta",
            "patientNumber": "919798272241",
            "patientEmail": "muskan@gmail.com",
            "emrNumber": "EMR-28909",
            "invoiceNumber": "INV-1772259747087-458",
            "gender": "Male",
            "doctorId": "69269f7496275482d82e5e7b",
            "doctorName": "Rahul Kumar",
            "doctorEmail": "rahul@gmail.com",
            "roomId": "6984527df17d83c036995dcc",
            "roomName": "Room100",
            "serviceId": "699c44f5e47e7a6cbcf24654",
            "serviceName": "Root canal",
            "serviceIds": [],
            "serviceNames": [
                "Root canal"
            ],
            "status": "booked",
            "followType": "first time",
            "referral": "direct",
            "emergency": "no",
            "notes": "",
            "registeredDate": "04/06/2026",
            "registeredTime": "12:00 - 12:20",
            "invoicedDate": "28/02/2026",
            "invoicedTime": "11:52 AM",
            "startDate": "2026-06-04T00:00:00.000Z",
            "fromTime": "12:00",
            "toTime": "12:20",
            "createdAt": "2026-06-03T12:08:16.509Z",
            "updatedAt": "2026-06-03T12:09:42.299Z"
        },
        {
            "_id": "6a1ec355c815fd19832538ef",
            "visitId": "38ef",
            "patientId": "69dcbcd93e6eabec68844c3f",
            "patientName": "Bajuddin Khan1",
            "patientNumber": "917818035705",
            "patientEmail": "",
            "emrNumber": "EMR-29139",
            "invoiceNumber": "INV-1776073944657-107",
            "gender": "Other",
            "doctorId": "69269f7496275482d82e5e7b",
            "doctorName": "Rahul Kumar",
            "doctorEmail": "rahul@gmail.com",
            "roomId": "6984527df17d83c036995dcc",
            "roomName": "Room100",
            "serviceId": "699c44f5e47e7a6cbcf24654",
            "serviceName": "Root canal",
            "serviceIds": [
                "699c44f5e47e7a6cbcf24654"
            ],
            "serviceNames": [
                "Root canal"
            ],
            "status": "Arrived",
            "followType": "first time",
            "referral": "No",
            "emergency": "no",
            "notes": "",
            "registeredDate": "04/06/2026",
            "registeredTime": "10:00 - 10:20",
            "invoicedDate": "13/04/2026",
            "invoicedTime": "03:22 PM",
            "startDate": "2026-06-04T00:00:00.000Z",
            "fromTime": "10:00",
            "toTime": "10:20",
            "createdAt": "2026-06-02T11:49:41.451Z",
            "updatedAt": "2026-06-04T08:20:20.652Z"
        },
        {
            "_id": "6a1ec2d3c815fd19832538c8",
            "visitId": "38c8",
            "patientId": "69dcbcd93e6eabec68844c3f",
            "patientName": "Bajuddin Khan1",
            "patientNumber": "917818035705",
            "patientEmail": "",
            "emrNumber": "EMR-29139",
            "invoiceNumber": "INV-1776073944657-107",
            "gender": "Other",
            "doctorId": "69269f7496275482d82e5e7b",
            "doctorName": "Rahul Kumar",
            "doctorEmail": "rahul@gmail.com",
            "roomId": "6984527df17d83c036995dcc",
            "roomName": "Room100",
            "serviceId": "699c44f5e47e7a6cbcf24654",
            "serviceName": "Root canal",
            "serviceIds": [
                "699c44f5e47e7a6cbcf24654"
            ],
            "serviceNames": [
                "Root canal"
            ],
            "status": "booked",
            "followType": "first time",
            "referral": "No",
            "emergency": "no",
            "notes": "",
            "registeredDate": "04/06/2026",
            "registeredTime": "10:00 - 10:20",
            "invoicedDate": "13/04/2026",
            "invoicedTime": "03:22 PM",
            "startDate": "2026-06-04T00:00:00.000Z",
            "fromTime": "10:00",
            "toTime": "10:20",
            "createdAt": "2026-06-02T11:47:31.202Z",
            "updatedAt": "2026-06-03T04:58:15.108Z"
        }
    ],
    "total": 296,
    "page": 1,
    "totalPages": 15,
    "totalRevenue": 992719.59
}